%YAML 1.1
%TAG !u! tag:unity3d.com,2011:
--- !u!114 &11400000
MonoBehaviour:
  m_ObjectHideFlags: 0
  m_PrefabParentObject: {fileID: 0}
  m_PrefabInternal: {fileID: 0}
  m_GameObject: {fileID: 0}
  m_Enabled: 1
  m_EditorHideFlags: 0
  m_Script: {fileID: 11500000, guid: b6f13688c3b4dda479c6aa71fcc44183, type: 3}
  m_Name: pst_hacker_junction_box
  m_EditorClassIdentifier: 
  actions:
  - {fileID: 11400000, guid: cc719b262c2e49b47b1aa957f010b089, type: 2}
  - {fileID: 11400000, guid: 00c4055f6e899de47bcc7e756fae6ea3, type: 2}
  - {fileID: 11400000, guid: b42766c6496b3f74ea1f8f56b21478d1, type: 2}
  - {fileID: 11400000, guid: 0016a9c662724314faa63cf02b517cbd, type: 2}
  includes:
  - {fileID: 11400000, guid: df4f66f974898cf4ca70a897103fa93d, type: 2}
