%YAML 1.1
%TAG !u! tag:unity3d.com,2011:
--- !u!114 &11400000
MonoBehaviour:
  m_ObjectHideFlags: 0
  m_PrefabParentObject: {fileID: 0}
  m_PrefabInternal: {fileID: 0}
  m_GameObject: {fileID: 0}
  m_Enabled: 1
  m_EditorHideFlags: 0
  m_Script: {fileID: 11500000, guid: b72da0f70db058c44b31cefb6679181e, type: 3}
  m_Name: twp_clock
  m_EditorClassIdentifier: 
  duration: 1
  curve:
    serializedVersion: 2
    m_Curve:
    - serializedVersion: 2
      time: 0
      value: 0
      inSlope: 4.3986206
      outSlope: 0.5664029
      tangentMode: 1
    - serializedVersion: 2
      time: 0.5000629
      value: 1
      inSlope: 0
      outSlope: 0
      tangentMode: 0
    - serializedVersion: 2
      time: 1
      value: 0
      inSlope: -0.76999104
      outSlope: -4.326026
      tangentMode: 1
    m_PreInfinity: 2
    m_PostInfinity: 2
    m_RotationOrder: 0
