%YAML 1.1
%TAG !u! tag:unity3d.com,2011:
--- !u!114 &11400000
MonoBehaviour:
  m_ObjectHideFlags: 0
  m_PrefabParentObject: {fileID: 0}
  m_PrefabInternal: {fileID: 0}
  m_GameObject: {fileID: 0}
  m_Enabled: 1
  m_EditorHideFlags: 0
  m_Script: {fileID: 11500000, guid: b72da0f70db058c44b31cefb6679181e, type: 3}
  m_Name: twp_fade
  m_EditorClassIdentifier: 
  duration: 1
  curve:
    serializedVersion: 2
    m_Curve:
    - serializedVersion: 2
      time: 0
      value: 0
      inSlope: 0.3187873
      outSlope: 0.3187873
      tangentMode: 34
    - serializedVersion: 2
      time: 0.09976496
      value: 0.0318038
      inSlope: 0.74606895
      outSlope: 0.74606895
      tangentMode: 34
    - serializedVersion: 2
      time: 0.9025224
      value: 0.97371966
      inSlope: 0.7214772
      outSlope: 0.7214772
      tangentMode: 34
    - serializedVersion: 2
      time: 1
      value: 1
      inSlope: 0.26960388
      outSlope: 0.26960388
      tangentMode: 34
    m_PreInfinity: 2
    m_PostInfinity: 2
    m_RotationOrder: 0
