%YAML 1.1
%TAG !u! tag:unity3d.com,2011:
--- !u!114 &11400000
MonoBehaviour:
  m_ObjectHideFlags: 0
  m_PrefabParentObject: {fileID: 0}
  m_PrefabInternal: {fileID: 0}
  m_GameObject: {fileID: 0}
  m_Enabled: 1
  m_EditorHideFlags: 0
  m_Script: {fileID: 11500000, guid: 0c9d01d6f730d53439f1f800ce964efe, type: 3}
  m_Name: act_interact_node_release
  m_EditorClassIdentifier: 
  label: Use Node
  description: Interact with a hacked node.
  showAsHint: 0
  prompt: use node
  defaultMapping: 3
  buttonEvent: 1
  holdTime: 0
  repeat: 1
