%YAML 1.1
%TAG !u! tag:unity3d.com,2011:
--- !u!29 &1
OcclusionCullingSettings:
  m_ObjectHideFlags: 0
  serializedVersion: 2
  m_OcclusionBakeSettings:
    smallestOccluder: 5
    smallestHole: 0.25
    backfaceThreshold: 100
  m_SceneGUID: 00000000000000000000000000000000
  m_OcclusionCullingData: {fileID: 0}
--- !u!104 &2
RenderSettings:
  m_ObjectHideFlags: 0
  serializedVersion: 7
  m_Fog: 0
  m_FogColor: {r: 0.5, g: 0.5, b: 0.5, a: 1}
  m_FogMode: 3
  m_FogDensity: 0.01
  m_LinearFogStart: 0
  m_LinearFogEnd: 300
  m_AmbientSkyColor: {r: 0.212, g: 0.227, b: 0.259, a: 1}
  m_AmbientEquatorColor: {r: 0.114, g: 0.125, b: 0.133, a: 1}
  m_AmbientGroundColor: {r: 0.047, g: 0.043, b: 0.035, a: 1}
  m_AmbientIntensity: 1
  m_AmbientMode: 0
  m_SkyboxMaterial: {fileID: 10304, guid: 0000000000000000f000000000000000, type: 0}
  m_HaloStrength: 0.5
  m_FlareStrength: 1
  m_FlareFadeSpeed: 3
  m_HaloTexture: {fileID: 0}
  m_SpotCookie: {fileID: 10001, guid: 0000000000000000e000000000000000, type: 0}
  m_DefaultReflectionMode: 0
  m_DefaultReflectionResolution: 128
  m_ReflectionBounces: 1
  m_ReflectionIntensity: 1
  m_CustomReflection: {fileID: 0}
  m_Sun: {fileID: 0}
  m_IndirectSpecularColor: {r: 0, g: 0, b: 0, a: 1}
--- !u!157 &3
LightmapSettings:
  m_ObjectHideFlags: 0
  serializedVersion: 7
  m_GIWorkflowMode: 1
  m_GISettings:
    serializedVersion: 2
    m_BounceScale: 1
    m_IndirectOutputScale: 1
    m_AlbedoBoost: 1
    m_TemporalCoherenceThreshold: 1
    m_EnvironmentLightingMode: 0
    m_EnableBakedLightmaps: 1
    m_EnableRealtimeLightmaps: 1
  m_LightmapEditorSettings:
    serializedVersion: 4
    m_Resolution: 2
    m_BakeResolution: 40
    m_TextureWidth: 1024
    m_TextureHeight: 1024
    m_AO: 0
    m_AOMaxDistance: 1
    m_CompAOExponent: 1
    m_CompAOExponentDirect: 0
    m_Padding: 2
    m_LightmapParameters: {fileID: 0}
    m_LightmapsBakeMode: 1
    m_TextureCompression: 1
    m_DirectLightInLightProbes: 1
    m_FinalGather: 0
    m_FinalGatherFiltering: 1
    m_FinalGatherRayCount: 256
    m_ReflectionCompression: 2
  m_LightingDataAsset: {fileID: 0}
  m_RuntimeCPUUsage: 25
--- !u!196 &4
NavMeshSettings:
  serializedVersion: 2
  m_ObjectHideFlags: 0
  m_BuildSettings:
    serializedVersion: 2
    agentTypeID: 0
    agentRadius: 0.5
    agentHeight: 2
    agentSlope: 45
    agentClimb: 0.4
    ledgeDropHeight: 0
    maxJumpAcrossDistance: 0
    minRegionArea: 2
    manualCellSize: 0
    cellSize: 0.16666667
    accuratePlacement: 0
  m_NavMeshData: {fileID: 0}
--- !u!1001 &203057913
Prefab:
  m_ObjectHideFlags: 0
  serializedVersion: 2
  m_Modification:
    m_TransformParent: {fileID: 0}
    m_Modifications:
    - target: {fileID: 4513305942200420, guid: 8b557a08ed1046442ae71d2de55a6bfa, type: 2}
      propertyPath: m_LocalPosition.x
      value: 10.999999
      objectReference: {fileID: 0}
    - target: {fileID: 4513305942200420, guid: 8b557a08ed1046442ae71d2de55a6bfa, type: 2}
      propertyPath: m_LocalPosition.y
      value: -0.00000023615023
      objectReference: {fileID: 0}
    - target: {fileID: 4513305942200420, guid: 8b557a08ed1046442ae71d2de55a6bfa, type: 2}
      propertyPath: m_LocalPosition.z
      value: 22.999998
      objectReference: {fileID: 0}
    - target: {fileID: 4513305942200420, guid: 8b557a08ed1046442ae71d2de55a6bfa, type: 2}
      propertyPath: m_LocalRotation.x
      value: 0
      objectReference: {fileID: 0}
    - target: {fileID: 4513305942200420, guid: 8b557a08ed1046442ae71d2de55a6bfa, type: 2}
      propertyPath: m_LocalRotation.y
      value: 0.7071067
      objectReference: {fileID: 0}
    - target: {fileID: 4513305942200420, guid: 8b557a08ed1046442ae71d2de55a6bfa, type: 2}
      propertyPath: m_LocalRotation.z
      value: 0
      objectReference: {fileID: 0}
    - target: {fileID: 4513305942200420, guid: 8b557a08ed1046442ae71d2de55a6bfa, type: 2}
      propertyPath: m_LocalRotation.w
      value: 0.7071068
      objectReference: {fileID: 0}
    - target: {fileID: 4513305942200420, guid: 8b557a08ed1046442ae71d2de55a6bfa, type: 2}
      propertyPath: m_RootOrder
      value: 1
      objectReference: {fileID: 0}
    - target: {fileID: 1743793182551364, guid: 8b557a08ed1046442ae71d2de55a6bfa, type: 2}
      propertyPath: m_Name
      value: obj_block_hall_s (3)
      objectReference: {fileID: 0}
    m_RemovedComponents: []
  m_ParentPrefab: {fileID: 100100000, guid: 8b557a08ed1046442ae71d2de55a6bfa, type: 2}
  m_IsPrefabParent: 0
--- !u!1001 &320335782
Prefab:
  m_ObjectHideFlags: 0
  serializedVersion: 2
  m_Modification:
    m_TransformParent: {fileID: 0}
    m_Modifications:
    - target: {fileID: 4780420556770528, guid: 0efcb740431537047aec51b8366c70a9, type: 2}
      propertyPath: m_LocalPosition.x
      value: 3.000001
      objectReference: {fileID: 0}
    - target: {fileID: 4780420556770528, guid: 0efcb740431537047aec51b8366c70a9, type: 2}
      propertyPath: m_LocalPosition.y
      value: 0.00000047683716
      objectReference: {fileID: 0}
    - target: {fileID: 4780420556770528, guid: 0efcb740431537047aec51b8366c70a9, type: 2}
      propertyPath: m_LocalPosition.z
      value: 28.999996
      objectReference: {fileID: 0}
    - target: {fileID: 4780420556770528, guid: 0efcb740431537047aec51b8366c70a9, type: 2}
      propertyPath: m_LocalRotation.x
      value: 0
      objectReference: {fileID: 0}
    - target: {fileID: 4780420556770528, guid: 0efcb740431537047aec51b8366c70a9, type: 2}
      propertyPath: m_LocalRotation.y
      value: 0.70710707
      objectReference: {fileID: 0}
    - target: {fileID: 4780420556770528, guid: 0efcb740431537047aec51b8366c70a9, type: 2}
      propertyPath: m_LocalRotation.z
      value: 0
      objectReference: {fileID: 0}
    - target: {fileID: 4780420556770528, guid: 0efcb740431537047aec51b8366c70a9, type: 2}
      propertyPath: m_LocalRotation.w
      value: 0.7071066
      objectReference: {fileID: 0}
    - target: {fileID: 4780420556770528, guid: 0efcb740431537047aec51b8366c70a9, type: 2}
      propertyPath: m_RootOrder
      value: 26
      objectReference: {fileID: 0}
    - target: {fileID: 1623261380144544, guid: 0efcb740431537047aec51b8366c70a9, type: 2}
      propertyPath: m_Name
      value: obj_block_wall_large_high_ext (1)
      objectReference: {fileID: 0}
    m_RemovedComponents: []
  m_ParentPrefab: {fileID: 100100000, guid: 0efcb740431537047aec51b8366c70a9, type: 2}
  m_IsPrefabParent: 0
--- !u!1001 &345956944
Prefab:
  m_ObjectHideFlags: 0
  serializedVersion: 2
  m_Modification:
    m_TransformParent: {fileID: 0}
    m_Modifications:
    - target: {fileID: 4834427145928052, guid: 6372182858e213a45be02a877b6b2b26, type: 2}
      propertyPath: m_LocalPosition.x
      value: 5.999996
      objectReference: {fileID: 0}
    - target: {fileID: 4834427145928052, guid: 6372182858e213a45be02a877b6b2b26, type: 2}
      propertyPath: m_LocalPosition.y
      value: 0
      objectReference: {fileID: 0}
    - target: {fileID: 4834427145928052, guid: 6372182858e213a45be02a877b6b2b26, type: 2}
      propertyPath: m_LocalPosition.z
      value: 20
      objectReference: {fileID: 0}
    - target: {fileID: 4834427145928052, guid: 6372182858e213a45be02a877b6b2b26, type: 2}
      propertyPath: m_LocalRotation.x
      value: 0
      objectReference: {fileID: 0}
    - target: {fileID: 4834427145928052, guid: 6372182858e213a45be02a877b6b2b26, type: 2}
      propertyPath: m_LocalRotation.y
      value: 1
      objectReference: {fileID: 0}
    - target: {fileID: 4834427145928052, guid: 6372182858e213a45be02a877b6b2b26, type: 2}
      propertyPath: m_LocalRotation.z
      value: 0
      objectReference: {fileID: 0}
    - target: {fileID: 4834427145928052, guid: 6372182858e213a45be02a877b6b2b26, type: 2}
      propertyPath: m_LocalRotation.w
      value: 0
      objectReference: {fileID: 0}
    - target: {fileID: 4834427145928052, guid: 6372182858e213a45be02a877b6b2b26, type: 2}
      propertyPath: m_RootOrder
      value: 19
      objectReference: {fileID: 0}
    - target: {fileID: 1977512911545774, guid: 6372182858e213a45be02a877b6b2b26, type: 2}
      propertyPath: m_Name
      value: obj_block_wall_large_high (6)
      objectReference: {fileID: 0}
    m_RemovedComponents: []
  m_ParentPrefab: {fileID: 100100000, guid: 6372182858e213a45be02a877b6b2b26, type: 2}
  m_IsPrefabParent: 0
--- !u!1001 &380735725
Prefab:
  m_ObjectHideFlags: 0
  serializedVersion: 2
  m_Modification:
    m_TransformParent: {fileID: 0}
    m_Modifications:
    - target: {fileID: 4949517006599488, guid: c4f3ea1fcf156e1489191e301830569c, type: 2}
      propertyPath: m_LocalPosition.x
      value: 9
      objectReference: {fileID: 0}
    - target: {fileID: 4949517006599488, guid: c4f3ea1fcf156e1489191e301830569c, type: 2}
      propertyPath: m_LocalPosition.y
      value: 0
      objectReference: {fileID: 0}
    - target: {fileID: 4949517006599488, guid: c4f3ea1fcf156e1489191e301830569c, type: 2}
      propertyPath: m_LocalPosition.z
      value: 16.999998
      objectReference: {fileID: 0}
    - target: {fileID: 4949517006599488, guid: c4f3ea1fcf156e1489191e301830569c, type: 2}
      propertyPath: m_LocalRotation.x
      value: 0
      objectReference: {fileID: 0}
    - target: {fileID: 4949517006599488, guid: c4f3ea1fcf156e1489191e301830569c, type: 2}
      propertyPath: m_LocalRotation.y
      value: 0.7071069
      objectReference: {fileID: 0}
    - target: {fileID: 4949517006599488, guid: c4f3ea1fcf156e1489191e301830569c, type: 2}
      propertyPath: m_LocalRotation.z
      value: 0
      objectReference: {fileID: 0}
    - target: {fileID: 4949517006599488, guid: c4f3ea1fcf156e1489191e301830569c, type: 2}
      propertyPath: m_LocalRotation.w
      value: 0.70710665
      objectReference: {fileID: 0}
    - target: {fileID: 4949517006599488, guid: c4f3ea1fcf156e1489191e301830569c, type: 2}
      propertyPath: m_RootOrder
      value: 28
      objectReference: {fileID: 0}
    - target: {fileID: 1054620388311004, guid: c4f3ea1fcf156e1489191e301830569c, type: 2}
      propertyPath: m_Name
      value: obj_block_wall_large_high_to_hall (2)
      objectReference: {fileID: 0}
    m_RemovedComponents: []
  m_ParentPrefab: {fileID: 100100000, guid: c4f3ea1fcf156e1489191e301830569c, type: 2}
  m_IsPrefabParent: 0
--- !u!1001 &460288790
Prefab:
  m_ObjectHideFlags: 0
  serializedVersion: 2
  m_Modification:
    m_TransformParent: {fileID: 0}
    m_Modifications:
    - target: {fileID: 4834427145928052, guid: 6372182858e213a45be02a877b6b2b26, type: 2}
      propertyPath: m_LocalPosition.x
      value: 0.00000023841858
      objectReference: {fileID: 0}
    - target: {fileID: 4834427145928052, guid: 6372182858e213a45be02a877b6b2b26, type: 2}
      propertyPath: m_LocalPosition.y
      value: 0
      objectReference: {fileID: 0}
    - target: {fileID: 4834427145928052, guid: 6372182858e213a45be02a877b6b2b26, type: 2}
      propertyPath: m_LocalPosition.z
      value: 26
      objectReference: {fileID: 0}
    - target: {fileID: 4834427145928052, guid: 6372182858e213a45be02a877b6b2b26, type: 2}
      propertyPath: m_LocalRotation.x
      value: 0
      objectReference: {fileID: 0}
    - target: {fileID: 4834427145928052, guid: 6372182858e213a45be02a877b6b2b26, type: 2}
      propertyPath: m_LocalRotation.y
      value: 0
      objectReference: {fileID: 0}
    - target: {fileID: 4834427145928052, guid: 6372182858e213a45be02a877b6b2b26, type: 2}
      propertyPath: m_LocalRotation.z
      value: 0
      objectReference: {fileID: 0}
    - target: {fileID: 4834427145928052, guid: 6372182858e213a45be02a877b6b2b26, type: 2}
      propertyPath: m_LocalRotation.w
      value: 1
      objectReference: {fileID: 0}
    - target: {fileID: 4834427145928052, guid: 6372182858e213a45be02a877b6b2b26, type: 2}
      propertyPath: m_RootOrder
      value: 21
      objectReference: {fileID: 0}
    - target: {fileID: 1977512911545774, guid: 6372182858e213a45be02a877b6b2b26, type: 2}
      propertyPath: m_Name
      value: obj_block_wall_large_high (8)
      objectReference: {fileID: 0}
    m_RemovedComponents: []
  m_ParentPrefab: {fileID: 100100000, guid: 6372182858e213a45be02a877b6b2b26, type: 2}
  m_IsPrefabParent: 0
--- !u!1001 &582767795
Prefab:
  m_ObjectHideFlags: 0
  serializedVersion: 2
  m_Modification:
    m_TransformParent: {fileID: 0}
    m_Modifications:
    - target: {fileID: 4102474197261690, guid: 4a56275d3bd859249ab78275bfb1ec63, type: 2}
      propertyPath: m_LocalPosition.x
      value: -3.000001
      objectReference: {fileID: 0}
    - target: {fileID: 4102474197261690, guid: 4a56275d3bd859249ab78275bfb1ec63, type: 2}
      propertyPath: m_LocalPosition.y
      value: 0
      objectReference: {fileID: 0}
    - target: {fileID: 4102474197261690, guid: 4a56275d3bd859249ab78275bfb1ec63, type: 2}
      propertyPath: m_LocalPosition.z
      value: 13.999999
      objectReference: {fileID: 0}
    - target: {fileID: 4102474197261690, guid: 4a56275d3bd859249ab78275bfb1ec63, type: 2}
      propertyPath: m_LocalRotation.x
      value: 0
      objectReference: {fileID: 0}
    - target: {fileID: 4102474197261690, guid: 4a56275d3bd859249ab78275bfb1ec63, type: 2}
      propertyPath: m_LocalRotation.y
      value: 0.7071068
      objectReference: {fileID: 0}
    - target: {fileID: 4102474197261690, guid: 4a56275d3bd859249ab78275bfb1ec63, type: 2}
      propertyPath: m_LocalRotation.z
      value: 0
      objectReference: {fileID: 0}
    - target: {fileID: 4102474197261690, guid: 4a56275d3bd859249ab78275bfb1ec63, type: 2}
      propertyPath: m_LocalRotation.w
      value: 0.7071067
      objectReference: {fileID: 0}
    - target: {fileID: 4102474197261690, guid: 4a56275d3bd859249ab78275bfb1ec63, type: 2}
      propertyPath: m_RootOrder
      value: 11
      objectReference: {fileID: 0}
    - target: {fileID: 1781267640518514, guid: 4a56275d3bd859249ab78275bfb1ec63, type: 2}
      propertyPath: m_Name
      value: obj_block_floor_large (1)
      objectReference: {fileID: 0}
    m_RemovedComponents: []
  m_ParentPrefab: {fileID: 100100000, guid: 4a56275d3bd859249ab78275bfb1ec63, type: 2}
  m_IsPrefabParent: 0
--- !u!1001 &623025657
Prefab:
  m_ObjectHideFlags: 0
  serializedVersion: 2
  m_Modification:
    m_TransformParent: {fileID: 0}
    m_Modifications:
    - target: {fileID: 4513305942200420, guid: 8b557a08ed1046442ae71d2de55a6bfa, type: 2}
      propertyPath: m_LocalPosition.x
      value: 0.9999976
      objectReference: {fileID: 0}
    - target: {fileID: 4513305942200420, guid: 8b557a08ed1046442ae71d2de55a6bfa, type: 2}
      propertyPath: m_LocalPosition.y
      value: -0.00000023615023
      objectReference: {fileID: 0}
    - target: {fileID: 4513305942200420, guid: 8b557a08ed1046442ae71d2de55a6bfa, type: 2}
      propertyPath: m_LocalPosition.z
      value: -1.0000007
      objectReference: {fileID: 0}
    - target: {fileID: 4513305942200420, guid: 8b557a08ed1046442ae71d2de55a6bfa, type: 2}
      propertyPath: m_LocalRotation.x
      value: 0
      objectReference: {fileID: 0}
    - target: {fileID: 4513305942200420, guid: 8b557a08ed1046442ae71d2de55a6bfa, type: 2}
      propertyPath: m_LocalRotation.y
      value: -0.7071067
      objectReference: {fileID: 0}
    - target: {fileID: 4513305942200420, guid: 8b557a08ed1046442ae71d2de55a6bfa, type: 2}
      propertyPath: m_LocalRotation.z
      value: 0
      objectReference: {fileID: 0}
    - target: {fileID: 4513305942200420, guid: 8b557a08ed1046442ae71d2de55a6bfa, type: 2}
      propertyPath: m_LocalRotation.w
      value: 0.7071068
      objectReference: {fileID: 0}
    - target: {fileID: 4513305942200420, guid: 8b557a08ed1046442ae71d2de55a6bfa, type: 2}
      propertyPath: m_RootOrder
      value: 24
      objectReference: {fileID: 0}
    - target: {fileID: 1743793182551364, guid: 8b557a08ed1046442ae71d2de55a6bfa, type: 2}
      propertyPath: m_Name
      value: obj_block_hall_s (2)
      objectReference: {fileID: 0}
    m_RemovedComponents: []
  m_ParentPrefab: {fileID: 100100000, guid: 8b557a08ed1046442ae71d2de55a6bfa, type: 2}
  m_IsPrefabParent: 0
--- !u!1001 &873378545
Prefab:
  m_ObjectHideFlags: 0
  serializedVersion: 2
  m_Modification:
    m_TransformParent: {fileID: 0}
    m_Modifications:
    - target: {fileID: 4331015208588934, guid: 92c9a586555792c4f820bf734dc19d9e, type: 2}
      propertyPath: m_LocalPosition.x
      value: 2.9999976
      objectReference: {fileID: 0}
    - target: {fileID: 4331015208588934, guid: 92c9a586555792c4f820bf734dc19d9e, type: 2}
      propertyPath: m_LocalPosition.y
      value: 0
      objectReference: {fileID: 0}
    - target: {fileID: 4331015208588934, guid: 92c9a586555792c4f820bf734dc19d9e, type: 2}
      propertyPath: m_LocalPosition.z
      value: 13.999999
      objectReference: {fileID: 0}
    - target: {fileID: 4331015208588934, guid: 92c9a586555792c4f820bf734dc19d9e, type: 2}
      propertyPath: m_LocalRotation.x
      value: 0
      objectReference: {fileID: 0}
    - target: {fileID: 4331015208588934, guid: 92c9a586555792c4f820bf734dc19d9e, type: 2}
      propertyPath: m_LocalRotation.y
      value: 0.7071069
      objectReference: {fileID: 0}
    - target: {fileID: 4331015208588934, guid: 92c9a586555792c4f820bf734dc19d9e, type: 2}
      propertyPath: m_LocalRotation.z
      value: 0
      objectReference: {fileID: 0}
    - target: {fileID: 4331015208588934, guid: 92c9a586555792c4f820bf734dc19d9e, type: 2}
      propertyPath: m_LocalRotation.w
      value: -0.70710677
      objectReference: {fileID: 0}
    - target: {fileID: 4331015208588934, guid: 92c9a586555792c4f820bf734dc19d9e, type: 2}
      propertyPath: m_RootOrder
      value: 6
      objectReference: {fileID: 0}
    m_RemovedComponents: []
  m_ParentPrefab: {fileID: 100100000, guid: 92c9a586555792c4f820bf734dc19d9e, type: 2}
  m_IsPrefabParent: 0
--- !u!1001 &884235079
Prefab:
  m_ObjectHideFlags: 0
  serializedVersion: 2
  m_Modification:
    m_TransformParent: {fileID: 0}
    m_Modifications:
    - target: {fileID: 4834427145928052, guid: 6372182858e213a45be02a877b6b2b26, type: 2}
      propertyPath: m_LocalPosition.x
      value: 8.999997
      objectReference: {fileID: 0}
    - target: {fileID: 4834427145928052, guid: 6372182858e213a45be02a877b6b2b26, type: 2}
      propertyPath: m_LocalPosition.y
      value: 0
      objectReference: {fileID: 0}
    - target: {fileID: 4834427145928052, guid: 6372182858e213a45be02a877b6b2b26, type: 2}
      propertyPath: m_LocalPosition.z
      value: 11
      objectReference: {fileID: 0}
    - target: {fileID: 4834427145928052, guid: 6372182858e213a45be02a877b6b2b26, type: 2}
      propertyPath: m_LocalRotation.x
      value: 0
      objectReference: {fileID: 0}
    - target: {fileID: 4834427145928052, guid: 6372182858e213a45be02a877b6b2b26, type: 2}
      propertyPath: m_LocalRotation.y
      value: -0.7071066
      objectReference: {fileID: 0}
    - target: {fileID: 4834427145928052, guid: 6372182858e213a45be02a877b6b2b26, type: 2}
      propertyPath: m_LocalRotation.z
      value: -0
      objectReference: {fileID: 0}
    - target: {fileID: 4834427145928052, guid: 6372182858e213a45be02a877b6b2b26, type: 2}
      propertyPath: m_LocalRotation.w
      value: 0.70710695
      objectReference: {fileID: 0}
    - target: {fileID: 4834427145928052, guid: 6372182858e213a45be02a877b6b2b26, type: 2}
      propertyPath: m_RootOrder
      value: 16
      objectReference: {fileID: 0}
    - target: {fileID: 1977512911545774, guid: 6372182858e213a45be02a877b6b2b26, type: 2}
      propertyPath: m_Name
      value: obj_block_wall_large_high (3)
      objectReference: {fileID: 0}
    m_RemovedComponents: []
  m_ParentPrefab: {fileID: 100100000, guid: 6372182858e213a45be02a877b6b2b26, type: 2}
  m_IsPrefabParent: 0
--- !u!1001 &960798731
Prefab:
  m_ObjectHideFlags: 0
  serializedVersion: 2
  m_Modification:
    m_TransformParent: {fileID: 0}
    m_Modifications:
    - target: {fileID: 4834427145928052, guid: 6372182858e213a45be02a877b6b2b26, type: 2}
      propertyPath: m_LocalPosition.x
      value: -6.000001
      objectReference: {fileID: 0}
    - target: {fileID: 4834427145928052, guid: 6372182858e213a45be02a877b6b2b26, type: 2}
      propertyPath: m_LocalPosition.y
      value: 0
      objectReference: {fileID: 0}
    - target: {fileID: 4834427145928052, guid: 6372182858e213a45be02a877b6b2b26, type: 2}
      propertyPath: m_LocalPosition.z
      value: 19.999998
      objectReference: {fileID: 0}
    - target: {fileID: 4834427145928052, guid: 6372182858e213a45be02a877b6b2b26, type: 2}
      propertyPath: m_LocalRotation.x
      value: 0
      objectReference: {fileID: 0}
    - target: {fileID: 4834427145928052, guid: 6372182858e213a45be02a877b6b2b26, type: 2}
      propertyPath: m_LocalRotation.y
      value: 0.00000033717467
      objectReference: {fileID: 0}
    - target: {fileID: 4834427145928052, guid: 6372182858e213a45be02a877b6b2b26, type: 2}
      propertyPath: m_LocalRotation.z
      value: 0
      objectReference: {fileID: 0}
    - target: {fileID: 4834427145928052, guid: 6372182858e213a45be02a877b6b2b26, type: 2}
      propertyPath: m_LocalRotation.w
      value: 1
      objectReference: {fileID: 0}
    - target: {fileID: 4834427145928052, guid: 6372182858e213a45be02a877b6b2b26, type: 2}
      propertyPath: m_RootOrder
      value: 14
      objectReference: {fileID: 0}
    - target: {fileID: 1977512911545774, guid: 6372182858e213a45be02a877b6b2b26, type: 2}
      propertyPath: m_Name
      value: obj_block_wall_large_high (2)
      objectReference: {fileID: 0}
    m_RemovedComponents: []
  m_ParentPrefab: {fileID: 100100000, guid: 6372182858e213a45be02a877b6b2b26, type: 2}
  m_IsPrefabParent: 0
--- !u!1001 &1019402771
Prefab:
  m_ObjectHideFlags: 0
  serializedVersion: 2
  m_Modification:
    m_TransformParent: {fileID: 0}
    m_Modifications:
    - target: {fileID: 4490768613037016, guid: 59773913ddda9d34584c5bd6366ac1f2, type: 2}
      propertyPath: m_LocalPosition.x
      value: -3.0000005
      objectReference: {fileID: 0}
    - target: {fileID: 4490768613037016, guid: 59773913ddda9d34584c5bd6366ac1f2, type: 2}
      propertyPath: m_LocalPosition.y
      value: -0.00000023841858
      objectReference: {fileID: 0}
    - target: {fileID: 4490768613037016, guid: 59773913ddda9d34584c5bd6366ac1f2, type: 2}
      propertyPath: m_LocalPosition.z
      value: 6.999999
      objectReference: {fileID: 0}
    - target: {fileID: 4490768613037016, guid: 59773913ddda9d34584c5bd6366ac1f2, type: 2}
      propertyPath: m_LocalRotation.x
      value: 0
      objectReference: {fileID: 0}
    - target: {fileID: 4490768613037016, guid: 59773913ddda9d34584c5bd6366ac1f2, type: 2}
      propertyPath: m_LocalRotation.y
      value: 0
      objectReference: {fileID: 0}
    - target: {fileID: 4490768613037016, guid: 59773913ddda9d34584c5bd6366ac1f2, type: 2}
      propertyPath: m_LocalRotation.z
      value: 0
      objectReference: {fileID: 0}
    - target: {fileID: 4490768613037016, guid: 59773913ddda9d34584c5bd6366ac1f2, type: 2}
      propertyPath: m_LocalRotation.w
      value: 1
      objectReference: {fileID: 0}
    - target: {fileID: 4490768613037016, guid: 59773913ddda9d34584c5bd6366ac1f2, type: 2}
      propertyPath: m_RootOrder
      value: 10
      objectReference: {fileID: 0}
    m_RemovedComponents: []
  m_ParentPrefab: {fileID: 100100000, guid: 59773913ddda9d34584c5bd6366ac1f2, type: 2}
  m_IsPrefabParent: 0
--- !u!1001 &1149692109
Prefab:
  m_ObjectHideFlags: 0
  serializedVersion: 2
  m_Modification:
    m_TransformParent: {fileID: 0}
    m_Modifications:
    - target: {fileID: 4834427145928052, guid: 6372182858e213a45be02a877b6b2b26, type: 2}
      propertyPath: m_LocalPosition.x
      value: -3.0000014
      objectReference: {fileID: 0}
    - target: {fileID: 4834427145928052, guid: 6372182858e213a45be02a877b6b2b26, type: 2}
      propertyPath: m_LocalPosition.y
      value: 0
      objectReference: {fileID: 0}
    - target: {fileID: 4834427145928052, guid: 6372182858e213a45be02a877b6b2b26, type: 2}
      propertyPath: m_LocalPosition.z
      value: 11
      objectReference: {fileID: 0}
    - target: {fileID: 4834427145928052, guid: 6372182858e213a45be02a877b6b2b26, type: 2}
      propertyPath: m_LocalRotation.x
      value: 0
      objectReference: {fileID: 0}
    - target: {fileID: 4834427145928052, guid: 6372182858e213a45be02a877b6b2b26, type: 2}
      propertyPath: m_LocalRotation.y
      value: -0.70710665
      objectReference: {fileID: 0}
    - target: {fileID: 4834427145928052, guid: 6372182858e213a45be02a877b6b2b26, type: 2}
      propertyPath: m_LocalRotation.z
      value: -0
      objectReference: {fileID: 0}
    - target: {fileID: 4834427145928052, guid: 6372182858e213a45be02a877b6b2b26, type: 2}
      propertyPath: m_LocalRotation.w
      value: 0.7071069
      objectReference: {fileID: 0}
    - target: {fileID: 4834427145928052, guid: 6372182858e213a45be02a877b6b2b26, type: 2}
      propertyPath: m_RootOrder
      value: 9
      objectReference: {fileID: 0}
    m_RemovedComponents: []
  m_ParentPrefab: {fileID: 100100000, guid: 6372182858e213a45be02a877b6b2b26, type: 2}
  m_IsPrefabParent: 0
--- !u!1001 &1183568866
Prefab:
  m_ObjectHideFlags: 0
  serializedVersion: 2
  m_Modification:
    m_TransformParent: {fileID: 0}
    m_Modifications:
    - target: {fileID: 4102474197261690, guid: 4a56275d3bd859249ab78275bfb1ec63, type: 2}
      propertyPath: m_LocalPosition.x
      value: -3.0000021
      objectReference: {fileID: 0}
    - target: {fileID: 4102474197261690, guid: 4a56275d3bd859249ab78275bfb1ec63, type: 2}
      propertyPath: m_LocalPosition.y
      value: 0
      objectReference: {fileID: 0}
    - target: {fileID: 4102474197261690, guid: 4a56275d3bd859249ab78275bfb1ec63, type: 2}
      propertyPath: m_LocalPosition.z
      value: 19.999998
      objectReference: {fileID: 0}
    - target: {fileID: 4102474197261690, guid: 4a56275d3bd859249ab78275bfb1ec63, type: 2}
      propertyPath: m_LocalRotation.x
      value: 0
      objectReference: {fileID: 0}
    - target: {fileID: 4102474197261690, guid: 4a56275d3bd859249ab78275bfb1ec63, type: 2}
      propertyPath: m_LocalRotation.y
      value: 1
      objectReference: {fileID: 0}
    - target: {fileID: 4102474197261690, guid: 4a56275d3bd859249ab78275bfb1ec63, type: 2}
      propertyPath: m_LocalRotation.z
      value: 0
      objectReference: {fileID: 0}
    - target: {fileID: 4102474197261690, guid: 4a56275d3bd859249ab78275bfb1ec63, type: 2}
      propertyPath: m_LocalRotation.w
      value: 0.0000000842937
      objectReference: {fileID: 0}
    - target: {fileID: 4102474197261690, guid: 4a56275d3bd859249ab78275bfb1ec63, type: 2}
      propertyPath: m_RootOrder
      value: 12
      objectReference: {fileID: 0}
    - target: {fileID: 1781267640518514, guid: 4a56275d3bd859249ab78275bfb1ec63, type: 2}
      propertyPath: m_Name
      value: obj_block_floor_large (2)
      objectReference: {fileID: 0}
    m_RemovedComponents: []
  m_ParentPrefab: {fileID: 100100000, guid: 4a56275d3bd859249ab78275bfb1ec63, type: 2}
  m_IsPrefabParent: 0
--- !u!1001 &1192389971
Prefab:
  m_ObjectHideFlags: 0
  serializedVersion: 2
  m_Modification:
    m_TransformParent: {fileID: 0}
    m_Modifications:
    - target: {fileID: 4949517006599488, guid: c4f3ea1fcf156e1489191e301830569c, type: 2}
      propertyPath: m_LocalPosition.x
      value: 2.999998
      objectReference: {fileID: 0}
    - target: {fileID: 4949517006599488, guid: c4f3ea1fcf156e1489191e301830569c, type: 2}
      propertyPath: m_LocalPosition.y
      value: 0
      objectReference: {fileID: 0}
    - target: {fileID: 4949517006599488, guid: c4f3ea1fcf156e1489191e301830569c, type: 2}
      propertyPath: m_LocalPosition.z
      value: 5
      objectReference: {fileID: 0}
    - target: {fileID: 4949517006599488, guid: c4f3ea1fcf156e1489191e301830569c, type: 2}
      propertyPath: m_LocalRotation.x
      value: 0
      objectReference: {fileID: 0}
    - target: {fileID: 4949517006599488, guid: c4f3ea1fcf156e1489191e301830569c, type: 2}
      propertyPath: m_LocalRotation.y
      value: -0.7071066
      objectReference: {fileID: 0}
    - target: {fileID: 4949517006599488, guid: c4f3ea1fcf156e1489191e301830569c, type: 2}
      propertyPath: m_LocalRotation.z
      value: 0
      objectReference: {fileID: 0}
    - target: {fileID: 4949517006599488, guid: c4f3ea1fcf156e1489191e301830569c, type: 2}
      propertyPath: m_LocalRotation.w
      value: 0.70710707
      objectReference: {fileID: 0}
    - target: {fileID: 4949517006599488, guid: c4f3ea1fcf156e1489191e301830569c, type: 2}
      propertyPath: m_RootOrder
      value: 25
      objectReference: {fileID: 0}
    - target: {fileID: 1054620388311004, guid: c4f3ea1fcf156e1489191e301830569c, type: 2}
      propertyPath: m_Name
      value: obj_block_wall_large_high_to_hall (1)
      objectReference: {fileID: 0}
    m_RemovedComponents: []
  m_ParentPrefab: {fileID: 100100000, guid: c4f3ea1fcf156e1489191e301830569c, type: 2}
  m_IsPrefabParent: 0
--- !u!1 &1222249278
GameObject:
  m_ObjectHideFlags: 0
  m_PrefabParentObject: {fileID: 0}
  m_PrefabInternal: {fileID: 0}
  serializedVersion: 5
  m_Component:
  - component: {fileID: 1222249280}
  - component: {fileID: 1222249279}
  m_Layer: 0
  m_Name: Directional Light
  m_TagString: Untagged
  m_Icon: {fileID: 0}
  m_NavMeshLayer: 0
  m_StaticEditorFlags: 0
  m_IsActive: 1
--- !u!108 &1222249279
Light:
  m_ObjectHideFlags: 0
  m_PrefabParentObject: {fileID: 0}
  m_PrefabInternal: {fileID: 0}
  m_GameObject: {fileID: 1222249278}
  m_Enabled: 1
  serializedVersion: 7
  m_Type: 1
  m_Color: {r: 1, g: 0.95686275, b: 0.8392157, a: 1}
  m_Intensity: 1
  m_Range: 10
  m_SpotAngle: 30
  m_CookieSize: 10
  m_Shadows:
    m_Type: 2
    m_Resolution: 3
    m_CustomResolution: -1
    m_Strength: 1
    m_Bias: 0.05
    m_NormalBias: 0.4
    m_NearPlane: 0.2
  m_Cookie: {fileID: 0}
  m_DrawHalo: 0
  m_Flare: {fileID: 0}
  m_RenderMode: 0
  m_CullingMask:
    serializedVersion: 2
    m_Bits: 4294967295
  m_Lightmapping: 4
  m_AreaSize: {x: 1, y: 1}
  m_BounceIntensity: 1
  m_ShadowRadius: 0
  m_ShadowAngle: 0
--- !u!4 &1222249280
Transform:
  m_ObjectHideFlags: 0
  m_PrefabParentObject: {fileID: 0}
  m_PrefabInternal: {fileID: 0}
  m_GameObject: {fileID: 1222249278}
  m_LocalRotation: {x: 0.40821788, y: -0.23456968, z: 0.10938163, w: 0.8754261}
  m_LocalPosition: {x: 0, y: 3, z: 0}
  m_LocalScale: {x: 1, y: 1, z: 1}
  m_Children: []
  m_Father: {fileID: 0}
  m_RootOrder: 0
  m_LocalEulerAnglesHint: {x: 50, y: -30, z: 0}
--- !u!1001 &1314578084
Prefab:
  m_ObjectHideFlags: 0
  serializedVersion: 2
  m_Modification:
    m_TransformParent: {fileID: 0}
    m_Modifications:
    - target: {fileID: 4626350676908902, guid: cfa94c3ef8539a64d920835567b939a6, type: 2}
      propertyPath: m_LocalPosition.x
      value: -3.0000026
      objectReference: {fileID: 0}
    - target: {fileID: 4626350676908902, guid: cfa94c3ef8539a64d920835567b939a6, type: 2}
      propertyPath: m_LocalPosition.y
      value: 0
      objectReference: {fileID: 0}
    - target: {fileID: 4626350676908902, guid: cfa94c3ef8539a64d920835567b939a6, type: 2}
      propertyPath: m_LocalPosition.z
      value: 22.999996
      objectReference: {fileID: 0}
    - target: {fileID: 4626350676908902, guid: cfa94c3ef8539a64d920835567b939a6, type: 2}
      propertyPath: m_LocalRotation.x
      value: 0
      objectReference: {fileID: 0}
    - target: {fileID: 4626350676908902, guid: cfa94c3ef8539a64d920835567b939a6, type: 2}
      propertyPath: m_LocalRotation.y
      value: 0.70710695
      objectReference: {fileID: 0}
    - target: {fileID: 4626350676908902, guid: cfa94c3ef8539a64d920835567b939a6, type: 2}
      propertyPath: m_LocalRotation.z
      value: 0
      objectReference: {fileID: 0}
    - target: {fileID: 4626350676908902, guid: cfa94c3ef8539a64d920835567b939a6, type: 2}
      propertyPath: m_LocalRotation.w
      value: 0.7071066
      objectReference: {fileID: 0}
    - target: {fileID: 4626350676908902, guid: cfa94c3ef8539a64d920835567b939a6, type: 2}
      propertyPath: m_RootOrder
      value: 27
      objectReference: {fileID: 0}
    - target: {fileID: 1798582012492170, guid: cfa94c3ef8539a64d920835567b939a6, type: 2}
      propertyPath: m_Name
      value: obj_block_wall_large_high_angular (1)
      objectReference: {fileID: 0}
    m_RemovedComponents: []
  m_ParentPrefab: {fileID: 100100000, guid: cfa94c3ef8539a64d920835567b939a6, type: 2}
  m_IsPrefabParent: 0
--- !u!1001 &1410097052
Prefab:
  m_ObjectHideFlags: 0
  serializedVersion: 2
  m_Modification:
    m_TransformParent: {fileID: 0}
    m_Modifications:
    - target: {fileID: 4514370550302344, guid: 0a86026b963db9542b63565da1b24ba9, type: 2}
      propertyPath: m_LocalPosition.x
      value: -6.1814113
      objectReference: {fileID: 0}
    - target: {fileID: 4514370550302344, guid: 0a86026b963db9542b63565da1b24ba9, type: 2}
      propertyPath: m_LocalPosition.y
      value: -0.00000023841858
      objectReference: {fileID: 0}
    - target: {fileID: 4514370550302344, guid: 0a86026b963db9542b63565da1b24ba9, type: 2}
      propertyPath: m_LocalPosition.z
      value: 7.489638
      objectReference: {fileID: 0}
    - target: {fileID: 4514370550302344, guid: 0a86026b963db9542b63565da1b24ba9, type: 2}
      propertyPath: m_LocalRotation.x
      value: 0
      objectReference: {fileID: 0}
    - target: {fileID: 4514370550302344, guid: 0a86026b963db9542b63565da1b24ba9, type: 2}
      propertyPath: m_LocalRotation.y
      value: 0.9659258
      objectReference: {fileID: 0}
    - target: {fileID: 4514370550302344, guid: 0a86026b963db9542b63565da1b24ba9, type: 2}
      propertyPath: m_LocalRotation.z
      value: 0
      objectReference: {fileID: 0}
    - target: {fileID: 4514370550302344, guid: 0a86026b963db9542b63565da1b24ba9, type: 2}
      propertyPath: m_LocalRotation.w
      value: -0.25881922
      objectReference: {fileID: 0}
    - target: {fileID: 4514370550302344, guid: 0a86026b963db9542b63565da1b24ba9, type: 2}
      propertyPath: m_RootOrder
      value: 5
      objectReference: {fileID: 0}
    m_RemovedComponents: []
  m_ParentPrefab: {fileID: 100100000, guid: 0a86026b963db9542b63565da1b24ba9, type: 2}
  m_IsPrefabParent: 0
--- !u!1001 &1451925228
Prefab:
  m_ObjectHideFlags: 0
  serializedVersion: 2
  m_Modification:
    m_TransformParent: {fileID: 0}
    m_Modifications:
    - target: {fileID: 4949517006599488, guid: c4f3ea1fcf156e1489191e301830569c, type: 2}
      propertyPath: m_LocalPosition.x
      value: 0
      objectReference: {fileID: 0}
    - target: {fileID: 4949517006599488, guid: c4f3ea1fcf156e1489191e301830569c, type: 2}
      propertyPath: m_LocalPosition.y
      value: 0
      objectReference: {fileID: 0}
    - target: {fileID: 4949517006599488, guid: c4f3ea1fcf156e1489191e301830569c, type: 2}
      propertyPath: m_LocalPosition.z
      value: 8
      objectReference: {fileID: 0}
    - target: {fileID: 4949517006599488, guid: c4f3ea1fcf156e1489191e301830569c, type: 2}
      propertyPath: m_LocalRotation.x
      value: 0
      objectReference: {fileID: 0}
    - target: {fileID: 4949517006599488, guid: c4f3ea1fcf156e1489191e301830569c, type: 2}
      propertyPath: m_LocalRotation.y
      value: 0
      objectReference: {fileID: 0}
    - target: {fileID: 4949517006599488, guid: c4f3ea1fcf156e1489191e301830569c, type: 2}
      propertyPath: m_LocalRotation.z
      value: 0
      objectReference: {fileID: 0}
    - target: {fileID: 4949517006599488, guid: c4f3ea1fcf156e1489191e301830569c, type: 2}
      propertyPath: m_LocalRotation.w
      value: 1
      objectReference: {fileID: 0}
    - target: {fileID: 4949517006599488, guid: c4f3ea1fcf156e1489191e301830569c, type: 2}
      propertyPath: m_RootOrder
      value: 8
      objectReference: {fileID: 0}
    m_RemovedComponents: []
  m_ParentPrefab: {fileID: 100100000, guid: c4f3ea1fcf156e1489191e301830569c, type: 2}
  m_IsPrefabParent: 0
--- !u!1001 &1465626526
Prefab:
  m_ObjectHideFlags: 0
  serializedVersion: 2
  m_Modification:
    m_TransformParent: {fileID: 0}
    m_Modifications:
    - target: {fileID: 4102474197261690, guid: 4a56275d3bd859249ab78275bfb1ec63, type: 2}
      propertyPath: m_LocalPosition.x
      value: 8.999998
      objectReference: {fileID: 0}
    - target: {fileID: 4102474197261690, guid: 4a56275d3bd859249ab78275bfb1ec63, type: 2}
      propertyPath: m_LocalPosition.y
      value: 0
      objectReference: {fileID: 0}
    - target: {fileID: 4102474197261690, guid: 4a56275d3bd859249ab78275bfb1ec63, type: 2}
      propertyPath: m_LocalPosition.z
      value: 13.999999
      objectReference: {fileID: 0}
    - target: {fileID: 4102474197261690, guid: 4a56275d3bd859249ab78275bfb1ec63, type: 2}
      propertyPath: m_LocalRotation.x
      value: 0
      objectReference: {fileID: 0}
    - target: {fileID: 4102474197261690, guid: 4a56275d3bd859249ab78275bfb1ec63, type: 2}
      propertyPath: m_LocalRotation.y
      value: 0.000000084293745
      objectReference: {fileID: 0}
    - target: {fileID: 4102474197261690, guid: 4a56275d3bd859249ab78275bfb1ec63, type: 2}
      propertyPath: m_LocalRotation.z
      value: 0
      objectReference: {fileID: 0}
    - target: {fileID: 4102474197261690, guid: 4a56275d3bd859249ab78275bfb1ec63, type: 2}
      propertyPath: m_LocalRotation.w
      value: 1
      objectReference: {fileID: 0}
    - target: {fileID: 4102474197261690, guid: 4a56275d3bd859249ab78275bfb1ec63, type: 2}
      propertyPath: m_RootOrder
      value: 17
      objectReference: {fileID: 0}
    - target: {fileID: 1781267640518514, guid: 4a56275d3bd859249ab78275bfb1ec63, type: 2}
      propertyPath: m_Name
      value: obj_block_floor_large (4)
      objectReference: {fileID: 0}
    m_RemovedComponents: []
  m_ParentPrefab: {fileID: 100100000, guid: 4a56275d3bd859249ab78275bfb1ec63, type: 2}
  m_IsPrefabParent: 0
--- !u!1001 &1572780964
Prefab:
  m_ObjectHideFlags: 0
  serializedVersion: 2
  m_Modification:
    m_TransformParent: {fileID: 0}
    m_Modifications:
    - target: {fileID: 4513305942200420, guid: 8b557a08ed1046442ae71d2de55a6bfa, type: 2}
      propertyPath: m_LocalPosition.x
      value: -14.659735
      objectReference: {fileID: 0}
    - target: {fileID: 4513305942200420, guid: 8b557a08ed1046442ae71d2de55a6bfa, type: 2}
      propertyPath: m_LocalPosition.y
      value: -0.00000023388188
      objectReference: {fileID: 0}
    - target: {fileID: 4513305942200420, guid: 8b557a08ed1046442ae71d2de55a6bfa, type: 2}
      propertyPath: m_LocalPosition.z
      value: 27.856438
      objectReference: {fileID: 0}
    - target: {fileID: 4513305942200420, guid: 8b557a08ed1046442ae71d2de55a6bfa, type: 2}
      propertyPath: m_LocalRotation.x
      value: 0
      objectReference: {fileID: 0}
    - target: {fileID: 4513305942200420, guid: 8b557a08ed1046442ae71d2de55a6bfa, type: 2}
      propertyPath: m_LocalRotation.y
      value: 0.50003374
      objectReference: {fileID: 0}
    - target: {fileID: 4513305942200420, guid: 8b557a08ed1046442ae71d2de55a6bfa, type: 2}
      propertyPath: m_LocalRotation.z
      value: 0
      objectReference: {fileID: 0}
    - target: {fileID: 4513305942200420, guid: 8b557a08ed1046442ae71d2de55a6bfa, type: 2}
      propertyPath: m_LocalRotation.w
      value: 0.86600596
      objectReference: {fileID: 0}
    - target: {fileID: 4513305942200420, guid: 8b557a08ed1046442ae71d2de55a6bfa, type: 2}
      propertyPath: m_RootOrder
      value: 23
      objectReference: {fileID: 0}
    - target: {fileID: 1743793182551364, guid: 8b557a08ed1046442ae71d2de55a6bfa, type: 2}
      propertyPath: m_Name
      value: obj_block_hall_s (1)
      objectReference: {fileID: 0}
    m_RemovedComponents: []
  m_ParentPrefab: {fileID: 100100000, guid: 8b557a08ed1046442ae71d2de55a6bfa, type: 2}
  m_IsPrefabParent: 0
--- !u!1001 &1703914042
Prefab:
  m_ObjectHideFlags: 0
  serializedVersion: 2
  m_Modification:
    m_TransformParent: {fileID: 0}
    m_Modifications:
    - target: {fileID: 4490768613037016, guid: 59773913ddda9d34584c5bd6366ac1f2, type: 2}
      propertyPath: m_LocalPosition.x
      value: -14.7582655
      objectReference: {fileID: 0}
    - target: {fileID: 4490768613037016, guid: 59773913ddda9d34584c5bd6366ac1f2, type: 2}
      propertyPath: m_LocalPosition.y
      value: -0.00000023615023
      objectReference: {fileID: 0}
    - target: {fileID: 4490768613037016, guid: 59773913ddda9d34584c5bd6366ac1f2, type: 2}
      propertyPath: m_LocalPosition.z
      value: 22.026318
      objectReference: {fileID: 0}
    - target: {fileID: 4490768613037016, guid: 59773913ddda9d34584c5bd6366ac1f2, type: 2}
      propertyPath: m_LocalRotation.x
      value: 0
      objectReference: {fileID: 0}
    - target: {fileID: 4490768613037016, guid: 59773913ddda9d34584c5bd6366ac1f2, type: 2}
      propertyPath: m_LocalRotation.y
      value: 0.50003374
      objectReference: {fileID: 0}
    - target: {fileID: 4490768613037016, guid: 59773913ddda9d34584c5bd6366ac1f2, type: 2}
      propertyPath: m_LocalRotation.z
      value: 0
      objectReference: {fileID: 0}
    - target: {fileID: 4490768613037016, guid: 59773913ddda9d34584c5bd6366ac1f2, type: 2}
      propertyPath: m_LocalRotation.w
      value: 0.86600596
      objectReference: {fileID: 0}
    - target: {fileID: 4490768613037016, guid: 59773913ddda9d34584c5bd6366ac1f2, type: 2}
      propertyPath: m_RootOrder
      value: 2
      objectReference: {fileID: 0}
    - target: {fileID: 1409209137438138, guid: 59773913ddda9d34584c5bd6366ac1f2, type: 2}
      propertyPath: m_Name
      value: obj_block_hall_short (1)
      objectReference: {fileID: 0}
    m_RemovedComponents: []
  m_ParentPrefab: {fileID: 100100000, guid: 59773913ddda9d34584c5bd6366ac1f2, type: 2}
  m_IsPrefabParent: 0
--- !u!1001 &1768313407
Prefab:
  m_ObjectHideFlags: 0
  serializedVersion: 2
  m_Modification:
    m_TransformParent: {fileID: 0}
    m_Modifications:
    - target: {fileID: 4834427145928052, guid: 6372182858e213a45be02a877b6b2b26, type: 2}
      propertyPath: m_LocalPosition.x
      value: 11.999997
      objectReference: {fileID: 0}
    - target: {fileID: 4834427145928052, guid: 6372182858e213a45be02a877b6b2b26, type: 2}
      propertyPath: m_LocalPosition.y
      value: 0
      objectReference: {fileID: 0}
    - target: {fileID: 4834427145928052, guid: 6372182858e213a45be02a877b6b2b26, type: 2}
      propertyPath: m_LocalPosition.z
      value: 13.999998
      objectReference: {fileID: 0}
    - target: {fileID: 4834427145928052, guid: 6372182858e213a45be02a877b6b2b26, type: 2}
      propertyPath: m_LocalRotation.x
      value: 0
      objectReference: {fileID: 0}
    - target: {fileID: 4834427145928052, guid: 6372182858e213a45be02a877b6b2b26, type: 2}
      propertyPath: m_LocalRotation.y
      value: 1
      objectReference: {fileID: 0}
    - target: {fileID: 4834427145928052, guid: 6372182858e213a45be02a877b6b2b26, type: 2}
      propertyPath: m_LocalRotation.z
      value: 0
      objectReference: {fileID: 0}
    - target: {fileID: 4834427145928052, guid: 6372182858e213a45be02a877b6b2b26, type: 2}
      propertyPath: m_LocalRotation.w
      value: -0.0000000842937
      objectReference: {fileID: 0}
    - target: {fileID: 4834427145928052, guid: 6372182858e213a45be02a877b6b2b26, type: 2}
      propertyPath: m_RootOrder
      value: 18
      objectReference: {fileID: 0}
    - target: {fileID: 1977512911545774, guid: 6372182858e213a45be02a877b6b2b26, type: 2}
      propertyPath: m_Name
      value: obj_block_wall_large_high (4)
      objectReference: {fileID: 0}
    m_RemovedComponents: []
  m_ParentPrefab: {fileID: 100100000, guid: 6372182858e213a45be02a877b6b2b26, type: 2}
  m_IsPrefabParent: 0
--- !u!1001 &1807752131
Prefab:
  m_ObjectHideFlags: 0
  serializedVersion: 2
  m_Modification:
    m_TransformParent: {fileID: 0}
    m_Modifications:
    - target: {fileID: 4102474197261690, guid: 4a56275d3bd859249ab78275bfb1ec63, type: 2}
      propertyPath: m_LocalPosition.x
      value: 2.999999
      objectReference: {fileID: 0}
    - target: {fileID: 4102474197261690, guid: 4a56275d3bd859249ab78275bfb1ec63, type: 2}
      propertyPath: m_LocalPosition.y
      value: 0
      objectReference: {fileID: 0}
    - target: {fileID: 4102474197261690, guid: 4a56275d3bd859249ab78275bfb1ec63, type: 2}
      propertyPath: m_LocalPosition.z
      value: 7.999999
      objectReference: {fileID: 0}
    - target: {fileID: 4102474197261690, guid: 4a56275d3bd859249ab78275bfb1ec63, type: 2}
      propertyPath: m_LocalRotation.x
      value: 0
      objectReference: {fileID: 0}
    - target: {fileID: 4102474197261690, guid: 4a56275d3bd859249ab78275bfb1ec63, type: 2}
      propertyPath: m_LocalRotation.y
      value: 0
      objectReference: {fileID: 0}
    - target: {fileID: 4102474197261690, guid: 4a56275d3bd859249ab78275bfb1ec63, type: 2}
      propertyPath: m_LocalRotation.z
      value: 0
      objectReference: {fileID: 0}
    - target: {fileID: 4102474197261690, guid: 4a56275d3bd859249ab78275bfb1ec63, type: 2}
      propertyPath: m_LocalRotation.w
      value: 1
      objectReference: {fileID: 0}
    - target: {fileID: 4102474197261690, guid: 4a56275d3bd859249ab78275bfb1ec63, type: 2}
      propertyPath: m_RootOrder
      value: 3
      objectReference: {fileID: 0}
    m_RemovedComponents: []
  m_ParentPrefab: {fileID: 100100000, guid: 4a56275d3bd859249ab78275bfb1ec63, type: 2}
  m_IsPrefabParent: 0
--- !u!1001 &1855205572
Prefab:
  m_ObjectHideFlags: 0
  serializedVersion: 2
  m_Modification:
    m_TransformParent: {fileID: 0}
    m_Modifications:
    - target: {fileID: 4626350676908902, guid: cfa94c3ef8539a64d920835567b939a6, type: 2}
      propertyPath: m_LocalPosition.x
      value: 5.999997
      objectReference: {fileID: 0}
    - target: {fileID: 4626350676908902, guid: cfa94c3ef8539a64d920835567b939a6, type: 2}
      propertyPath: m_LocalPosition.y
      value: 0
      objectReference: {fileID: 0}
    - target: {fileID: 4626350676908902, guid: cfa94c3ef8539a64d920835567b939a6, type: 2}
      propertyPath: m_LocalPosition.z
      value: 7.999999
      objectReference: {fileID: 0}
    - target: {fileID: 4626350676908902, guid: cfa94c3ef8539a64d920835567b939a6, type: 2}
      propertyPath: m_LocalRotation.x
      value: 0
      objectReference: {fileID: 0}
    - target: {fileID: 4626350676908902, guid: cfa94c3ef8539a64d920835567b939a6, type: 2}
      propertyPath: m_LocalRotation.y
      value: 1
      objectReference: {fileID: 0}
    - target: {fileID: 4626350676908902, guid: cfa94c3ef8539a64d920835567b939a6, type: 2}
      propertyPath: m_LocalRotation.z
      value: 0
      objectReference: {fileID: 0}
    - target: {fileID: 4626350676908902, guid: cfa94c3ef8539a64d920835567b939a6, type: 2}
      propertyPath: m_LocalRotation.w
      value: -0.000000084293674
      objectReference: {fileID: 0}
    - target: {fileID: 4626350676908902, guid: cfa94c3ef8539a64d920835567b939a6, type: 2}
      propertyPath: m_RootOrder
      value: 7
      objectReference: {fileID: 0}
    m_RemovedComponents: []
  m_ParentPrefab: {fileID: 100100000, guid: cfa94c3ef8539a64d920835567b939a6, type: 2}
  m_IsPrefabParent: 0
--- !u!1001 &1863294058
Prefab:
  m_ObjectHideFlags: 0
  serializedVersion: 2
  m_Modification:
    m_TransformParent: {fileID: 0}
    m_Modifications:
    - target: {fileID: 4513305942200420, guid: 8b557a08ed1046442ae71d2de55a6bfa, type: 2}
      propertyPath: m_LocalPosition.x
      value: -9.7942295
      objectReference: {fileID: 0}
    - target: {fileID: 4513305942200420, guid: 8b557a08ed1046442ae71d2de55a6bfa, type: 2}
      propertyPath: m_LocalPosition.y
      value: -0.00000023615023
      objectReference: {fileID: 0}
    - target: {fileID: 4513305942200420, guid: 8b557a08ed1046442ae71d2de55a6bfa, type: 2}
      propertyPath: m_LocalPosition.z
      value: 13.23205
      objectReference: {fileID: 0}
    - target: {fileID: 4513305942200420, guid: 8b557a08ed1046442ae71d2de55a6bfa, type: 2}
      propertyPath: m_LocalRotation.x
      value: 0
      objectReference: {fileID: 0}
    - target: {fileID: 4513305942200420, guid: 8b557a08ed1046442ae71d2de55a6bfa, type: 2}
      propertyPath: m_LocalRotation.y
      value: 0.25881907
      objectReference: {fileID: 0}
    - target: {fileID: 4513305942200420, guid: 8b557a08ed1046442ae71d2de55a6bfa, type: 2}
      propertyPath: m_LocalRotation.z
      value: 0
      objectReference: {fileID: 0}
    - target: {fileID: 4513305942200420, guid: 8b557a08ed1046442ae71d2de55a6bfa, type: 2}
      propertyPath: m_LocalRotation.w
      value: 0.9659258
      objectReference: {fileID: 0}
    - target: {fileID: 4513305942200420, guid: 8b557a08ed1046442ae71d2de55a6bfa, type: 2}
      propertyPath: m_RootOrder
      value: 4
      objectReference: {fileID: 0}
    m_RemovedComponents: []
  m_ParentPrefab: {fileID: 100100000, guid: 8b557a08ed1046442ae71d2de55a6bfa, type: 2}
  m_IsPrefabParent: 0
--- !u!1001 &1983096933
Prefab:
  m_ObjectHideFlags: 0
  serializedVersion: 2
  m_Modification:
    m_TransformParent: {fileID: 0}
    m_Modifications:
    - target: {fileID: 4514370550302344, guid: 0a86026b963db9542b63565da1b24ba9, type: 2}
      propertyPath: m_LocalPosition.x
      value: -13.402812
      objectReference: {fileID: 0}
    - target: {fileID: 4514370550302344, guid: 0a86026b963db9542b63565da1b24ba9, type: 2}
      propertyPath: m_LocalPosition.y
      value: -0.00000023615023
      objectReference: {fileID: 0}
    - target: {fileID: 4514370550302344, guid: 0a86026b963db9542b63565da1b24ba9, type: 2}
      propertyPath: m_LocalPosition.z
      value: 19.344803
      objectReference: {fileID: 0}
    - target: {fileID: 4514370550302344, guid: 0a86026b963db9542b63565da1b24ba9, type: 2}
      propertyPath: m_LocalRotation.x
      value: 0
      objectReference: {fileID: 0}
    - target: {fileID: 4514370550302344, guid: 0a86026b963db9542b63565da1b24ba9, type: 2}
      propertyPath: m_LocalRotation.y
      value: -0.86600596
      objectReference: {fileID: 0}
    - target: {fileID: 4514370550302344, guid: 0a86026b963db9542b63565da1b24ba9, type: 2}
      propertyPath: m_LocalRotation.z
      value: 0
      objectReference: {fileID: 0}
    - target: {fileID: 4514370550302344, guid: 0a86026b963db9542b63565da1b24ba9, type: 2}
      propertyPath: m_LocalRotation.w
      value: 0.50003374
      objectReference: {fileID: 0}
    - target: {fileID: 4514370550302344, guid: 0a86026b963db9542b63565da1b24ba9, type: 2}
      propertyPath: m_RootOrder
      value: 22
      objectReference: {fileID: 0}
    - target: {fileID: 1825104420636916, guid: 0a86026b963db9542b63565da1b24ba9, type: 2}
      propertyPath: m_Name
      value: obj_block_hall_break_30deg (1)
      objectReference: {fileID: 0}
    m_RemovedComponents: []
  m_ParentPrefab: {fileID: 100100000, guid: 0a86026b963db9542b63565da1b24ba9, type: 2}
  m_IsPrefabParent: 0
--- !u!1001 &2014765312
Prefab:
  m_ObjectHideFlags: 0
  serializedVersion: 2
  m_Modification:
    m_TransformParent: {fileID: 0}
    m_Modifications:
    - target: {fileID: 4834427145928052, guid: 6372182858e213a45be02a877b6b2b26, type: 2}
      propertyPath: m_LocalPosition.x
      value: -6
      objectReference: {fileID: 0}
    - target: {fileID: 4834427145928052, guid: 6372182858e213a45be02a877b6b2b26, type: 2}
      propertyPath: m_LocalPosition.y
      value: 0
      objectReference: {fileID: 0}
    - target: {fileID: 4834427145928052, guid: 6372182858e213a45be02a877b6b2b26, type: 2}
      propertyPath: m_LocalPosition.z
      value: 14
      objectReference: {fileID: 0}
    - target: {fileID: 4834427145928052, guid: 6372182858e213a45be02a877b6b2b26, type: 2}
      propertyPath: m_LocalRotation.x
      value: 0
      objectReference: {fileID: 0}
    - target: {fileID: 4834427145928052, guid: 6372182858e213a45be02a877b6b2b26, type: 2}
      propertyPath: m_LocalRotation.y
      value: 0.00000033717467
      objectReference: {fileID: 0}
    - target: {fileID: 4834427145928052, guid: 6372182858e213a45be02a877b6b2b26, type: 2}
      propertyPath: m_LocalRotation.z
      value: 0
      objectReference: {fileID: 0}
    - target: {fileID: 4834427145928052, guid: 6372182858e213a45be02a877b6b2b26, type: 2}
      propertyPath: m_LocalRotation.w
      value: 1
      objectReference: {fileID: 0}
    - target: {fileID: 4834427145928052, guid: 6372182858e213a45be02a877b6b2b26, type: 2}
      propertyPath: m_RootOrder
      value: 13
      objectReference: {fileID: 0}
    - target: {fileID: 1977512911545774, guid: 6372182858e213a45be02a877b6b2b26, type: 2}
      propertyPath: m_Name
      value: obj_block_wall_large_high (1)
      objectReference: {fileID: 0}
    m_RemovedComponents: []
  m_ParentPrefab: {fileID: 100100000, guid: 6372182858e213a45be02a877b6b2b26, type: 2}
  m_IsPrefabParent: 0
--- !u!1001 &2040910613
Prefab:
  m_ObjectHideFlags: 0
  serializedVersion: 2
  m_Modification:
    m_TransformParent: {fileID: 0}
    m_Modifications:
    - target: {fileID: 4102474197261690, guid: 4a56275d3bd859249ab78275bfb1ec63, type: 2}
      propertyPath: m_LocalPosition.x
      value: 2.9999993
      objectReference: {fileID: 0}
    - target: {fileID: 4102474197261690, guid: 4a56275d3bd859249ab78275bfb1ec63, type: 2}
      propertyPath: m_LocalPosition.y
      value: 0
      objectReference: {fileID: 0}
    - target: {fileID: 4102474197261690, guid: 4a56275d3bd859249ab78275bfb1ec63, type: 2}
      propertyPath: m_LocalPosition.z
      value: 25.999998
      objectReference: {fileID: 0}
    - target: {fileID: 4102474197261690, guid: 4a56275d3bd859249ab78275bfb1ec63, type: 2}
      propertyPath: m_LocalRotation.x
      value: 0
      objectReference: {fileID: 0}
    - target: {fileID: 4102474197261690, guid: 4a56275d3bd859249ab78275bfb1ec63, type: 2}
      propertyPath: m_LocalRotation.y
      value: 0.0000002733342
      objectReference: {fileID: 0}
    - target: {fileID: 4102474197261690, guid: 4a56275d3bd859249ab78275bfb1ec63, type: 2}
      propertyPath: m_LocalRotation.z
      value: 0
      objectReference: {fileID: 0}
    - target: {fileID: 4102474197261690, guid: 4a56275d3bd859249ab78275bfb1ec63, type: 2}
      propertyPath: m_LocalRotation.w
      value: 1
      objectReference: {fileID: 0}
    - target: {fileID: 4102474197261690, guid: 4a56275d3bd859249ab78275bfb1ec63, type: 2}
      propertyPath: m_RootOrder
      value: 15
      objectReference: {fileID: 0}
    - target: {fileID: 1781267640518514, guid: 4a56275d3bd859249ab78275bfb1ec63, type: 2}
      propertyPath: m_Name
      value: obj_block_floor_large (3)
      objectReference: {fileID: 0}
    m_RemovedComponents: []
  m_ParentPrefab: {fileID: 100100000, guid: 4a56275d3bd859249ab78275bfb1ec63, type: 2}
  m_IsPrefabParent: 0
--- !u!1001 &2056819566
Prefab:
  m_ObjectHideFlags: 0
  serializedVersion: 2
  m_Modification:
    m_TransformParent: {fileID: 0}
    m_Modifications:
    - target: {fileID: 4834427145928052, guid: 6372182858e213a45be02a877b6b2b26, type: 2}
      propertyPath: m_LocalPosition.x
      value: 5.999998
      objectReference: {fileID: 0}
    - target: {fileID: 4834427145928052, guid: 6372182858e213a45be02a877b6b2b26, type: 2}
      propertyPath: m_LocalPosition.y
      value: 0
      objectReference: {fileID: 0}
    - target: {fileID: 4834427145928052, guid: 6372182858e213a45be02a877b6b2b26, type: 2}
      propertyPath: m_LocalPosition.z
      value: 25.999996
      objectReference: {fileID: 0}
    - target: {fileID: 4834427145928052, guid: 6372182858e213a45be02a877b6b2b26, type: 2}
      propertyPath: m_LocalRotation.x
      value: 0
      objectReference: {fileID: 0}
    - target: {fileID: 4834427145928052, guid: 6372182858e213a45be02a877b6b2b26, type: 2}
      propertyPath: m_LocalRotation.y
      value: 1
      objectReference: {fileID: 0}
    - target: {fileID: 4834427145928052, guid: 6372182858e213a45be02a877b6b2b26, type: 2}
      propertyPath: m_LocalRotation.z
      value: 0
      objectReference: {fileID: 0}
    - target: {fileID: 4834427145928052, guid: 6372182858e213a45be02a877b6b2b26, type: 2}
      propertyPath: m_LocalRotation.w
      value: 0
      objectReference: {fileID: 0}
    - target: {fileID: 4834427145928052, guid: 6372182858e213a45be02a877b6b2b26, type: 2}
      propertyPath: m_RootOrder
      value: 20
      objectReference: {fileID: 0}
    - target: {fileID: 1977512911545774, guid: 6372182858e213a45be02a877b6b2b26, type: 2}
      propertyPath: m_Name
      value: obj_block_wall_large_high (7)
      objectReference: {fileID: 0}
    m_RemovedComponents: []
  m_ParentPrefab: {fileID: 100100000, guid: 6372182858e213a45be02a877b6b2b26, type: 2}
  m_IsPrefabParent: 0
