%YAML 1.1
%TAG !u! tag:unity3d.com,2011:
--- !u!114 &11400000
MonoBehaviour:
  m_ObjectHideFlags: 0
  m_PrefabParentObject: {fileID: 0}
  m_PrefabInternal: {fileID: 0}
  m_GameObject: {fileID: 0}
  m_Enabled: 1
  m_EditorHideFlags: 0
  m_Script: {fileID: 11500000, guid: 60e03f40f56b51b4d918e33ea2d06042, type: 3}
  m_Name: cls_hacker
  m_EditorClassIdentifier: 
  prefab: {fileID: 0}
  label: Hacker
  description: 
  defaultState: {fileID: 11400000, guid: 7e51a807900134f49b19d30f709d87f1, type: 2}
