%YAML 1.1
%TAG !u! tag:unity3d.com,2011:
--- !u!114 &11400000
MonoBehaviour:
  m_ObjectHideFlags: 0
  m_PrefabParentObject: {fileID: 0}
  m_PrefabInternal: {fileID: 0}
  m_GameObject: {fileID: 0}
  m_Enabled: 1
  m_EditorHideFlags: 0
  m_Script: {fileID: 11500000, guid: c856354addede0c4ab12768c6a284fa4, type: 3}
  m_Name: jnt_vent
  m_EditorClassIdentifier: 
  color: {r: 0.89705884, g: 0.89705884, b: 0.89705884, a: 1}
