%YAML 1.1
%TAG !u! tag:unity3d.com,2011:
--- !u!114 &11400000
MonoBehaviour:
  m_ObjectHideFlags: 0
  m_PrefabParentObject: {fileID: 0}
  m_PrefabInternal: {fileID: 0}
  m_GameObject: {fileID: 0}
  m_Enabled: 1
  m_EditorHideFlags: 0
  m_Script: {fileID: 11500000, guid: e872d60d7f35b0746852f36dbe6571c8, type: 3}
  m_Name: ico_button_b
  m_EditorClassIdentifier: 
  button: 1
  sprite: {fileID: 21300000, guid: 203ef4e5c91bbf94b9ba32725e64823e, type: 3}
